{
  "UserAgent": "MobileHub/1.0",
  "Version": "1.0",
  "CredentialsProvider": {
    "CognitoIdentity": {
      "Default": {
        "PoolId": "eu-west-1:1a58100d-7397-405f-8e24-f291f15e34ba",
        "Region": "eu-west-1"
      }
    }
  },
  "IdentityManager": {
    "Default": {}
  },
  "CognitoUserPool": {
    "Default": {
      "PoolId": "eu-west-1_Jy72rX6Yd",
      "AppClientId": "5h83rla108minsuom5sb0c9gag",
      "AppClientSecret": "qdh8oefhs17svhf9ftbcincc8brte86j6qgg88j9i6tk9b8pq1p",
      "Region": "eu-west-1"
    }
  },
  "PinpointAnalytics": {
    "Default": {
      "AppId": "6d13a7fe42704e61879e104432e9787b",
      "Region": "us-east-1"
    }
  },
  "PinpointTargeting": {
    "Default": {
      "Region": "us-east-1"
    }
  }
}